{
    "Actividades": [
        {
            "ID": 2,
            "ComponenteID": 52,
            "Nombre": "Establecimiento de las condiciones de cultivo óptimas en invernadero.",
            "Indicadores": [
                {
                    "ID": 45,
                    "IndicadorUnidadMedida": "demo",
                    "IndicadorMeta": "demo",
                    "MedioVerificacion": "demo",
                    "Supuestos": "demo",
                    "Estado": 1
                }
            ],
            "Recursos":[
                {
                    "ID": 1,
                    "Clasificador": "demo",
                    "Descripcion": "demo",
                    "Fuente": "demo",
                    "Unidad": "demo",
                    "Cantidad": "demo",
                    "Monto": "demo"
                },
                {
                    "ID": 1,
                    "Clasificador": "demo",
                    "Descripcion": "demo",
                    "Fuente": "demo",
                    "Unidad": "demo",
                    "Cantidad": "demo",
                    "Monto": "demo"
                }
            ]
        },
        {
            "ID": 3,
            "ComponenteID": 52,
            "Nombre": "Caracterización morfológica de las inflorescencias.",
            "Indicadores": [
                {
                    "ID": 47,
                    "IndicadorUnidadMedida": "gerg",
                    "IndicadorMeta": "erger",
                    "MedioVerificacion": "erger",
                    "Supuestos": "gerger",
                    "Estado": 1
                }
            ],
            "Recursos":[
                {
                    "ID": 1,
                    "Clasificador": "demo",
                    "Descripcion": "demo",
                    "Fuente": "demo",
                    "Unidad": "demo",
                    "Cantidad": "demo",
                    "Monto": "demo"
                }
            ]
        },
        {
            "ID": 4,
            "ComponenteID": 52,
            "Nombre": "Determinación del estado de desarrollo de la microspora mediante tinción con DAPI.",
            "Indicadores": [
                {
                    "ID": 48,
                    "IndicadorUnidadMedida": "gwregerhtyj",
                    "IndicadorMeta": "hther",
                    "MedioVerificacion": "wefwef",
                    "Supuestos": "ewef",
                    "Estado": 1
                }
            ],
            "Recursos":[
                {
                    "ID": 1,
                    "Clasificador": "demo",
                    "Descripcion": "demo",
                    "Fuente": "demo",
                    "Unidad": "demo",
                    "Cantidad": "demo",
                    "Monto": "demo"
                }
            ]
        },
        {
            "ID": 5,
            "ComponenteID": 52,
            "Nombre": "Determinación de correlaciones. ",
            "Indicadores": [
                {
                    "ID": 46,
                    "IndicadorUnidadMedida": "rt",
                    "IndicadorMeta": "rt",
                    "MedioVerificacion": "serg",
                    "Supuestos": "erg",
                    "Estado": 1
                }
            ],
            "Recursos":[
                {
                    "ID": 1,
                    "Clasificador": "demo",
                    "Descripcion": "demo",
                    "Fuente": "demo",
                    "Unidad": "demo",
                    "Cantidad": "demo",
                    "Monto": "demo"
                }
            ]
        }
    ]
}